[
    {
      "id" : "graphics",
      "params" :
      {
        "file" : "ship_f_weaponed.png",
        "flags" : 1,
        "layer" : 120,
        "scaleX" : 0.32,
        "scaleY" : 0.32
      }
    },
    {
        "id" : "collision",
        "params" :
        {
            "type" : 0,
            "points" :
            [
                [16, 0]
            ]
        }
    },
    {
        "id" : "interaction",
        "params" :
        {
            "groups" : "ship friend"
        }
    }
]
