[
  {
    "id" : "position"
  },
  {
    "id" : "graphics",
    "params" :
    {
      "file" : "ship-e-ghost2.png",
      "flags" : 3,
      "layer" : 178,
      "scaleX" : 0.32,
      "scaleY" : 0.32
    }
  }
]
