[
  {
    "friendly_needed": 2,
    "enemy_needed": 0,
    "friendly_total": 2,
    "enemy_total": 0,
    "3": [ 2, 3, 1, 1 ]
  },
  { "schema": "reef1.json", "position": { "x": 550, "y": 350, "rotation": 0 } },
  { "schema": "reef2.json", "position": { "x": 150, "y": 350, "rotation": 0 } },
  { "schema": "ship_friend.json", "position": { "x": 575, "y": 600, "rotation": 0 },
    "velocity": { "x_vel": 0, "y_vel": -12 },
    "ship": { "color_scheme": 3 } },
  { "schema": "ship_friend.json", "position": { "x": 150, "y": 65, "rotation": 180 },
    "velocity": { "x_vel": 0, "y_vel": 12 },
    "ship": { "color_scheme": 3 } }
]
